<?xml version="1.0" standalone="no"?>
<!DOCTYPE svg PUBLIC "-//W3C//DTD SVG 20010904//EN"
 "http://www.w3.org/TR/2001/REC-SVG-20010904/DTD/svg10.dtd">
<svg version="1.0" xmlns="http://www.w3.org/2000/svg"
 width="100.000000pt" height="100.000000pt" viewBox="0 0 100.000000 100.000000"
 preserveAspectRatio="xMidYMid meet">
<metadata>
Created by potrace 1.11, written by Peter Selinger 2001-2013
</metadata>
<g transform="translate(0.000000,100.000000) scale(0.100000,-0.100000)"
fill="#000000" stroke="none">
<path d="M233 930 c-9 -16 -20 -30 -24 -30 -4 0 -12 -15 -19 -32 -23 -62 -28
-73 -54 -126 -14 -30 -26 -58 -26 -63 0 -5 -13 -38 -30 -72 -16 -35 -30 -74
-30 -87 0 -13 14 -52 30 -87 17 -34 30 -67 30 -73 0 -5 8 -24 18 -42 10 -18
27 -58 37 -88 11 -30 27 -66 36 -80 9 -14 24 -42 32 -62 l16 -38 346 0 346 0
-41 78 c-22 43 -40 83 -40 88 0 5 -9 27 -19 49 -11 22 -27 58 -36 80 -9 22
-22 51 -29 65 -7 14 -16 39 -20 55 -4 17 -18 55 -32 85 -14 30 -29 64 -33 75
-4 11 -17 40 -28 65 -12 25 -31 72 -43 104 -12 33 -27 71 -34 85 -8 15 -19 38
-26 54 l-13 27 -148 0 -148 0 -18 -30z m42 -49 c-6 -5 -25 10 -25 20 0 5 6 4
14 -3 8 -7 12 -15 11 -17z m22 -93 c-3 -8 -6 -5 -6 6 -1 11 2 17 5 13 3 -3 4
-12 1 -19z m181 -80 c11 -29 24 -65 28 -80 l6 -28 -65 0 -65 0 -17 -45 c-17
-43 -17 -47 1 -97 l19 -53 113 -3 113 -3 34 -76 c19 -41 35 -79 35 -84 0 -11
-331 -12 -345 -1 -13 9 -28 41 -60 132 -15 41 -33 89 -41 107 -16 36 -12 63
21 138 12 28 28 71 36 98 l13 47 76 0 76 0 22 -52z m209 -510 c-3 -8 -6 -5 -6
6 -1 11 2 17 5 13 3 -3 4 -12 1 -19z m34 -58 c5 0 9 -7 9 -15 0 -15 -20 -22
-20 -7 0 4 -2 16 -4 27 -2 11 -1 14 1 8 3 -7 9 -13 14 -13z"/>
</g>
</svg>
